{
	"Egypt":{
		"CDF_BYZWHI_06_376":{
			"location": "Aswan Low Dam",
			"date":	"",
			"comment": "",
			"long": "24.029",
			"lat": "32.8658"			
		},		
		"CDF_BYZWHI_06_378":{
			"location": "Aswan Low Dam",
			"date":	"",
			"comment": "",
			"long": "24.029",
			"lat": "32.8658"			
		},		
		"CDF_BYZWHI_06_383":{
			"location": "Aswan Low Dam",
			"date":	"",
			"comment": "Aswan Low Dam",
			"long": "24.029",
			"lat": "32.8658"			
		},		
		"CDF_BYZWHI_06_379":{
			"location": "Aswan Low Dam",
			"date":	"",
			"comment": "",
			"long": "24.029",
			"lat": "32.8658"			
		},
		"CDF_BYZWHI_06_287":{
			"location": "Al-Muizz li-Din Allah al-Fatimi Street at Madrasa of Al-Kamil Ayyub ",
			"date":	"",
			"comment": "",
			"long": "30.049455",
			"lat": "31.261121"
		},
		"CDF_BYZWHI_06_286":{
			"location": "Old City of Cairo",
			"date":	"",
			"comment": ""
		},
		"CDF_BYZWHI_06_280":{
			"location": "Bab Zuweila with Wikala der Nafisa al-Baida",
			"date":	"",
			"comment": "", 
			"long": "30.043224",
			"lat": "31.257997"
		},
		"CDF_BYZWHI_06_281":{
			"location": "Bab Zuweila with Wikala der Nafisa al-Baida",
			"date":	"",
			"comment": "", 
			"long": "30.043224",
			"lat": "31.257997"
		},
		"CDF_BYZWHI_06_429":{
			"location": "Qalawun Complex",
			"date":	"",
			"comment": "",
			"long": "30.049435",
			"lat": "31.261631"			
		},			
		"CDF_BYZWHI_06_282":{
			"location": "Old City of Cairo",
			"date":	"",
			"comment": ""
		},
		"CDF_BYZWHI_06_298":{
			"location": "Nile River",
			"date":	"",
			"comment": ""
		},
		"CDF_BYZWHI_06_300":{
			"location": "Nile River",
			"date":	"",
			"comment": ""
		},
		"CDF_BYZWHI_06_294":{
			"location": "Possibly old Cairo port or Sohag",
			"date":	"",
			"comment": ""
		},
		"CDF_BYZWHI_06_177":{
			"location": "Nile River",
			"date":	"",
			"comment": ""
		},
		"CDF_BYZWHI_06_285":{
			"location": "Nile, River",
			"date":	"",
			"comment": ""
		},
		"CDF_BYZWHI_06_310":{
			"location": "Nile River",
			"date":	"",
			"comment": ""
		},
		"CDF_BYZWHI_06_370":{
			"location": "Allegedly Abu Simbel coast ",
			"date":	"",
			"comment": "",
			"long": "28.731046",
			"lat": "34.624223"
		},
		"CDF_BYZWHI_06_314":{
			"location": "",
			"date":	"",
			"comment": ""			
		},
		"CDF_BYZWHI_06_371":{
			"location": "Abu Simbel smal temple",
			"date":	"",
			"comment": "",
			"long": "22.3327",
			"lat": "31.6267"	
		},
		"CDF_BYZWHI_06_367":{
			"location": "",
			"date":	"",
			"comment": ""
		},
		"CDF_BYZWHI_06_205":{
			"location": "Around Mount Sinai",
			"date":	"",
			"comment": "",
			"long": "28.537753",
			"lat": "33.939282"			
		},
		"CDF_BYZWHI_06_399":{
			"location": "",
			"date":	"",
			"comment": ""
		},	
		"CDF_BYZWHI_06_405":{
			"location": "",
			"date":	"",
			"comment": ""
		},
		"CDF_BYZWHI_06_401":{
			"location": "",
			"date":	"",
			"comment": ""
		},
		"CDF_BYZWHI_06_406":{
			"location": "",
			"date":	"",
			"comment": ""
		},	
		"CDF_BYZWHI_06_172":{
			"location": "",
			"date":	"",
			"comment": ""
		},		
		"CDF_BYZWHI_06_323":{
			"location": "",
			"date":	"",
			"comment": ""
		},
		"CDF_BYZWHI_06_325":{
			"location": "",
			"date":	"",
			"comment": ""
		},		
		"CDF_BYZWHI_06_324":{
			"location": "",
			"date":	"",
			"comment": ""
		},
		"CDF_BYZWHI_06_409":{
			"location": "Allegedly Gulf of Aqaba",
			"date":	"",
			"comment": "",
			"long": "28.75",
			"lat": "34.75"
		},	
		"CDF_BYZWHI_06_410":{
			"location": "",
			"date":	"",
			"comment": ""
		},		
		"CDF_BYZWHI_06_413":{
			"location": "",
			"date":	"",
			"comment": ""
		},
		"CDF_BYZWHI_06_263":{
			"location": "",
			"date":	"",
			"comment": "Coptic church, possibly called “Amat”"
		}
	}
}